pred_y,real_y
0,1,0
1,1,1
2,1,0
3,1,0
4,0,1
5,1,1
6,1,1
7,1,0
8,1,1
9,1,1
10,1,0
11,1,1
12,1,1
13,1,0
14,1,0
15,1,1
16,1,1
17,1,0
18,1,1
19,1,1
20,0,0
21,1,1
22,1,1
23,1,1
24,1,0
25,1,1
26,1,1
27,1,1
28,1,1
29,1,1
30,1,1
31,1,0
32,1,0
33,1,0
34,1,0
35,0,1
36,1,0
37,1,0
38,1,1
39,1,0
40,1,1
41,1,1
42,1,0
43,1,1
44,1,0
45,1,1
46,1,0
47,1,1
48,1,0
49,1,0
50,1,1
51,1,0
52,1,1
53,1,0
54,1,0
55,1,1
56,1,0
57,1,0
58,1,1
59,1,1
60,1,0
61,1,0
62,0,1
63,1,0
64,1,0
65,1,0
66,1,1
67,1,0
68,1,1
69,1,1
70,1,1
71,1,1
72,0,0
73,0,0
74,1,1
75,1,1
76,1,0
77,1,0
78,1,1
79,1,1
80,1,0
81,1,0
82,1,1
83,1,0
84,1,0
85,1,1
86,1,0
87,1,0
88,1,0
89,1,0
90,1,1
91,1,0
92,1,1
93,1,1
94,1,1
95,1,0
96,1,1
97,1,1
98,1,1
99,1,0
100,1,0
101,1,0
102,1,0
103,1,1
104,1,1
105,1,1
106,0,0
107,0,0
108,1,0
109,1,1
110,1,0
111,1,0
112,1,0
113,1,0
114,1,1
115,1,1
116,1,1
117,1,1
118,1,1
119,1,0
120,0,1
121,1,1
122,1,0
123,1,0
124,1,0
125,1,0
126,1,0
127,1,0
128,1,0
129,1,0
130,1,0
131,1,0
132,1,0
133,1,1
134,1,1
135,1,1
136,1,1
137,1,1
138,1,0
139,1,0
140,0,0
141,1,0
142,1,0
143,1,1
144,1,0
145,1,1
146,1,0
147,1,1
148,0,1
149,1,1
150,1,1
151,1,0
152,1,0
153,1,0
154,1,0
155,0,1
156,1,1
157,1,1
158,1,1
159,1,1
160,1,0
161,1,0
162,1,0
163,1,1
164,1,1
165,1,1
166,1,1
167,1,1
168,1,1
169,1,0
170,1,1
171,1,1
172,1,0
173,1,1
174,1,1
175,1,1
176,1,0
177,1,0
178,1,0
179,1,0
180,1,0
181,1,1
182,1,1
183,1,1
184,1,0
185,1,0
186,1,0
187,1,0
188,1,1
189,1,1
190,1,1
191,1,0
192,1,0
193,1,0
194,1,0
195,1,1
196,1,0
197,1,1
198,1,1
199,1,0
200,1,0
201,1,0
202,1,0
203,1,0
204,1,0
205,1,0
206,0,0
207,1,1
208,1,0
209,1,1
210,1,0
211,1,1
212,1,1
213,1,0
214,1,1
215,1,1
216,1,1
217,1,0
218,1,0
219,1,1
220,1,1
221,1,1
222,1,0
223,1,1
224,1,0
225,1,0
226,1,0
227,1,0
228,1,1
229,1,0
230,1,0
231,1,1
232,1,0
233,1,0
234,1,1
235,1,0
236,1,0
237,1,1
238,1,1
239,1,0
240,1,1
241,1,0
242,1,1
243,1,0
244,1,0
245,1,1
246,1,1
247,1,1
248,1,1
249,1,0
250,1,0
251,1,1
252,1,1
253,1,0
254,1,0
255,1,1
256,0,0
257,1,1
258,1,0
259,1,0
260,1,1
261,1,0
262,1,1
263,1,0
264,1,0
265,1,0
266,1,0
267,1,1
268,1,1
269,1,0
270,1,1
271,1,0
272,0,1
273,1,0
274,1,0
275,1,0
276,1,1
277,1,1
278,1,0
279,1,0
280,1,1
281,1,1
282,1,1
283,1,0
284,1,1
285,1,0
286,1,0
287,1,1
288,1,1
289,1,1
290,1,1
291,1,0
292,1,1
293,1,0
294,1,1
295,1,1
296,1,0
297,1,1
298,1,1
299,1,0
300,1,0
301,1,1
302,1,1
303,1,1
304,1,0
305,1,1
306,1,0
307,1,1
308,1,1
309,1,1
310,1,0
311,1,1
312,1,1
313,1,1
314,1,1
315,1,0
316,1,1
317,1,1
318,1,0
319,1,0
320,1,1
321,1,0
322,1,1
323,1,1
324,1,1
325,1,1
326,1,1
327,1,1
328,1,0
329,0,0
330,1,1
331,1,0
332,1,1
333,1,0
334,1,1
335,1,1
336,1,0
337,1,1
338,1,0
339,1,1
340,1,0
341,1,1
342,1,0
343,1,1
344,1,0
345,1,1
346,1,0
347,1,0
348,1,1
349,1,0
350,1,0
351,1,0
352,1,0
353,1,1
354,1,1
355,1,1
356,1,1
357,1,1
358,1,0
359,1,1
360,1,0
361,1,1
362,1,1
363,1,0
364,1,0
365,1,1
366,1,1
367,1,0
368,1,1
369,1,0
370,1,0
371,1,1
372,1,1
373,1,1
374,1,1
375,1,0
376,1,1
377,1,0
378,1,1
379,1,0
380,1,0
381,1,0
382,1,0
383,1,0
384,1,1
385,1,1
386,1,0
387,1,0
388,1,0
389,1,0
390,1,1
391,1,0
392,1,1
393,0,0
394,1,0
395,1,0
396,1,1
397,1,0
398,1,0
399,1,0
400,1,0
401,1,1
402,1,0
403,1,0
404,1,0
405,1,1
406,1,0
407,1,1
408,1,0
409,1,1
410,1,1
411,1,1
412,1,0
413,1,1
414,1,0
415,1,1
416,1,1
417,1,1
418,1,1
419,1,1
420,1,1
421,1,1
422,1,0
423,1,1
424,1,1
425,1,0
426,1,0
427,1,0
428,1,0
429,1,1
430,1,1
431,1,1
432,1,0
433,1,1
434,1,0
435,1,0
